[{
    "distance": "6.5",
    "features": [
        "Wildflowers/Meadows",
        "Ridges/passes",
        "Dogs allowed on leash",
        "Established campsites",
        "Mountain views",
        "Waterfalls",
        "Lakes"
    ],
    "gain": "2420",
    "high_point": "4320.0",
    "id": "0.0",
    "link": "http://www.wta.org/go-hiking/hikes/ira-spring-memorial",
    "name": "Ira Spring Trail - Mason Lake",
    "rating": "4.16",
    "region": "Snoqualmie Region -- Snoqualmie Pass",
    "type": "Roundtrip"
},{
    "distance": "5.5",
    "features": [
        "Mountain views",
        "Old growth",
        "Dogs allowed on leash",
        "Fall foliage"
    ],
    "gain": "1500",
    "high_point": "1730.0",
    "id": "0.1",
    "link": "http://www.wta.org/go-hiking/hikes/margarets-way",
    "name": "Margaret's Way",
    "rating": "3.53",
    "region": "Issaquah Alps -- Squak Mountain",
    "type": "Roundtrip"
},{
    "distance": "5.0",
    "features": [
        "Mountain views",
        "Wildlife",
        "Summits",
        "Dogs allowed on leash",
        "Coast"
    ],
    "gain": "1900",
    "high_point": "2025.0",
    "id": "0.2",
    "link": "http://www.wta.org/go-hiking/hikes/oyster-dome",
    "name": "Oyster Dome",
    "rating": "4.02",
    "region": "Puget Sound and Islands -- Bellingham Area",
    "type": "Roundtrip"
},{
    "distance": "6.0",
    "features": [
        "Wildflowers/Meadows",
        "Mountain views",
        "Dogs allowed on leash",
        "Waterfalls"
    ],
    "gain": "1420",
    "high_point": "2370.0",
    "id": "0.3",
    "link": "http://www.wta.org/go-hiking/hikes/kamikaze-falls",
    "name": "Teneriffe Falls (Kamikaze Falls)",
    "rating": "3.76",
    "region": "Snoqualmie Region -- North Bend Area",
    "type": "Roundtrip"
},{
    "distance": "8.2",
    "features": [
        "Wildflowers/Meadows",
        "Mountain views",
        "Dogs allowed on leash",
        "Waterfalls",
        "Good for kids",
        "Lakes"
    ],
    "gain": "2000",
    "high_point": "2521.0",
    "id": "0.4",
    "link": "http://www.wta.org/go-hiking/hikes/lake-serene",
    "name": "Lake Serene - Bridal Veil Falls",
    "rating": "4.47",
    "region": "Central Cascades -- Stevens Pass - West",
    "type": "Roundtrip"
},{
    "distance": "7.2",
    "features": [
        "Ridges/passes",
        "Dogs allowed on leash",
        "Established campsites",
        "Mountain views",
        "Old growth",
        "Waterfalls",
        "Good for kids",
        "Lakes"
    ],
    "gain": "1800",
    "high_point": "4400.0",
    "id": "0.5",
    "link": "http://www.wta.org/go-hiking/hikes/snow-lake-1",
    "name": "Snow Lake",
    "rating": "4.11",
    "region": "Snoqualmie Region -- Snoqualmie Pass",
    "type": "Roundtrip"
},{
    "distance": "8.6",
    "features": [
        "Wildflowers/Meadows",
        "Mountain views",
        "Dogs allowed on leash",
        "Ridges/passes",
        "Summits",
        "Fall foliage"
    ],
    "gain": "2500",
    "high_point": "5540.0",
    "id": "0.6",
    "link": "http://www.wta.org/go-hiking/hikes/scorpion-mountain",
    "name": "Scorpion Mountain",
    "rating": "4.25",
    "region": "Central Cascades -- Stevens Pass - West",
    "type": "Roundtrip"
},{
    "distance": "4.0",
    "features": [
        "Wildflowers/Meadows",
        "Mountain views",
        "Dogs allowed on leash",
        "Summits",
        "Ridges/passes"
    ],
    "gain": "2650",
    "high_point": "5540.0",
    "id": "0.7",
    "link": "http://www.wta.org/go-hiking/hikes/johnson-ridge",
    "name": "Johnson Ridge",
    "rating": "4.14",
    "region": "Central Cascades -- Stevens Pass - West",
    "type": "Roundtrip"
},{
    "distance": "1.5",
    "features": [
        "Old growth",
        "Good for kids",
        "Waterfalls"
    ],
    "gain": "300",
    "high_point": "1900.0",
    "id": "0.8",
    "link": "http://www.wta.org/go-hiking/hikes/big-creek-falls-1",
    "name": "Big Creek Falls",
    "rating": "2.60",
    "region": "Southwest Washington -- Lewis River Region",
    "type": "Roundtrip"
},{
    "distance": "4.5",
    "features": [
        "Wildflowers/Meadows",
        "Ridges/passes",
        "Wildlife",
        "Mountain views",
        "Old growth",
        "Lakes"
    ],
    "gain": "1000",
    "high_point": "4700.0",
    "id": "0.9",
    "link": "http://www.wta.org/go-hiking/hikes/blue-lake-south-fork-toutle",
    "name": "Blue Lake and Sheep Canyon via South Fork Toutle",
    "rating": "2.50",
    "region": "South Cascades -- Mount St. Helens",
    "type": "Roundtrip"
},{
    "distance": "5.0",
    "features": [
        "Dogs allowed on leash",
        "Good for kids",
        "Coast"
    ],
    "gain": "360",
    "high_point": "360.0",
    "id": "0.10",
    "link": "http://www.wta.org/go-hiking/hikes/miller-peninsula-thompson-spit",
    "name": "Miller Peninsula-Thompson Spit",
    "rating": "3.00",
    "region": "Olympic Peninsula -- Northern Coast",
    "type": "Roundtrip"
},{
    "distance": "6.0",
    "features": [
        "Dogs allowed on leash",
        "Good for kids"
    ],
    "gain": "800",
    "high_point": "1600.0",
    "id": "0.11",
    "link": "http://www.wta.org/go-hiking/hikes/dry-creek",
    "name": "Dry Creek",
    "rating": "2.60",
    "region": "Olympic Peninsula -- Hood Canal",
    "type": "Roundtrip"
},{
    "distance": "5.0",
    "features": [
        "Dogs allowed on leash",
        "Wildlife",
        "Good for kids",
        "Lakes",
        "Established campsites"
    ],
    "gain": "30",
    "high_point": "170.0",
    "id": "0.12",
    "link": "http://www.wta.org/go-hiking/hikes/lake-sylvia-state-park",
    "name": "Lake Sylvia State Park",
    "rating": "2.50",
    "region": "Southwest Washington -- Long Beach Area",
    "type": "Trail system"
},{
    "distance": "10.6",
    "features": [
        "Good for kids",
        "Coast"
    ],
    "gain": "50",
    "high_point": "35.0",
    "id": "0.13",
    "link": "http://www.wta.org/go-hiking/hikes/leadbetter-state-park-leadbetter-point",
    "name": "Willapa National Wildlife Refuge - Leadbetter Point",
    "rating": "3.20",
    "region": "Southwest Washington -- Long Beach Area",
    "type": "Roundtrip"
},{
    "distance": "9.0",
    "features": [
        "Wildflowers/Meadows",
        "Mountain views",
        "Summits",
        "Ridges/passes"
    ],
    "gain": "3700",
    "high_point": "6550.0",
    "id": "0.14",
    "link": "http://www.wta.org/go-hiking/hikes/baldy",
    "name": "Baldy",
    "rating": "3.25",
    "region": "Olympic Peninsula -- Hood Canal",
    "type": "Roundtrip"
},{
    "distance": "6.1",
    "features": [
        "Mountain views",
        "Wildlife",
        "Dogs allowed on leash",
        "Summits",
        "Good for kids",
        "Lakes"
    ],
    "gain": "1300",
    "high_point": "5800.0",
    "id": "0.15",
    "link": "http://www.wta.org/go-hiking/hikes/summit-lake",
    "name": "Summit Lake",
    "rating": "4.28",
    "region": "Mount Rainier Area -- Chinook Pass - Hwy 410",
    "type": "Roundtrip"
},{
    "distance": "11.0",
    "features": [
        "Wildflowers/Meadows",
        "Mountain views",
        "Summits",
        "Lakes"
    ],
    "gain": "3584",
    "high_point": "5584.0",
    "id": "0.16",
    "link": "http://www.wta.org/go-hiking/hikes/mount-defiance",
    "name": "Mount Defiance",
    "rating": "4.17",
    "region": "Snoqualmie Region -- Snoqualmie Pass",
    "type": "Roundtrip"
},{
    "distance": "8.0",
    "features": [
        "Wildflowers/Meadows",
        "Ridges/passes",
        "Dogs allowed on leash",
        "Fall foliage",
        "Mountain views",
        "Summits",
        "Waterfalls"
    ],
    "gain": "3400",
    "high_point": "5240.0",
    "id": "0.17",
    "link": "http://www.wta.org/go-hiking/hikes/bandera-mountain",
    "name": "Bandera Mountain",
    "rating": "4.22",
    "region": "Snoqualmie Region -- North Bend Area",
    "type": "Roundtrip"
},{
    "distance": "5.4",
    "features": [
        "Wildflowers/Meadows",
        "Mountain views",
        "Wildlife",
        "Waterfalls",
        "Dogs allowed on leash",
        "Old growth",
        "Good for kids",
        "Lakes",
        "Rivers"
    ],
    "gain": "1350",
    "high_point": "2400.0",
    "id": "0.18",
    "link": "http://www.wta.org/go-hiking/hikes/lake-22",
    "name": "Lake Twentytwo - Lake 22",
    "rating": "4.22",
    "region": "North Cascades -- Mountain Loop Highway",
    "type": "Roundtrip"
},{
    "distance": "8.6",
    "features": [
        "Wildflowers/Meadows",
        "Mountain views",
        "Dogs allowed on leash",
        "Summits",
        "Fall foliage"
    ],
    "gain": "3800",
    "high_point": "5629.0",
    "id": "0.19",
    "link": "http://www.wta.org/go-hiking/hikes/granite-mountain-1",
    "name": "Granite Mountain",
    "rating": "4.35",
    "region": "Snoqualmie Region -- Snoqualmie Pass",
    "type": "Roundtrip"
},{
    "distance": "1.0",
    "features": [
        "Wildflowers/Meadows",
        "Dogs allowed on leash",
        "Good for kids",
        "Lakes",
        "Established campsites"
    ],
    "gain": "120",
    "high_point": "680.0",
    "id": "0.20",
    "link": "http://www.wta.org/go-hiking/hikes/battle-ground-lake-lower-lake-trail",
    "name": "Lower Lake Trail",
    "rating": "0.00",
    "region": "Southwest Washington -- Lewis River Region",
    "type": "Roundtrip"
},{
    "distance": "4.0",
    "features": [
        "Wildflowers/Meadows",
        "Mountain views",
        "Dogs allowed on leash",
        "Ridges/passes",
        "Summits",
        "Good for kids",
        "Lakes"
    ],
    "gain": "1160",
    "high_point": "2078.0",
    "id": "0.21",
    "link": "http://www.wta.org/go-hiking/hikes/rattle-snake-ledge",
    "name": "Rattlesnake Ledge",
    "rating": "3.96",
    "region": "Snoqualmie Region -- North Bend Area",
    "type": "Roundtrip"
},{
    "distance": "8.5",
    "features": [
        "Ridges/passes",
        "Dogs allowed on leash",
        "Established campsites",
        "Waterfalls",
        "Old growth",
        "Lakes"
    ],
    "gain": "2500",
    "high_point": "4600.0",
    "id": "0.22",
    "link": "http://www.wta.org/go-hiking/hikes/melakwa-lake",
    "name": "Melakwa Lake",
    "rating": "4.15",
    "region": "Snoqualmie Region -- Snoqualmie Pass",
    "type": "Roundtrip"
},{
    "distance": "2.0",
    "features": [
        "Dogs allowed on leash",
        "Rivers",
        "Good for kids",
        "Waterfalls"
    ],
    "gain": "400",
    "high_point": "2600.0",
    "id": "0.23",
    "link": "http://www.wta.org/go-hiking/hikes/franklin-falls",
    "name": "Franklin Falls",
    "rating": "4.07",
    "region": "Snoqualmie Region -- Snoqualmie Pass",
    "type": "Roundtrip"
},{
    "distance": "6.0",
    "features": [
        "Wildflowers/Meadows",
        "Dogs allowed on leash",
        "Waterfalls",
        "Old growth",
        "Good for kids",
        "Rivers"
    ],
    "gain": "1345",
    "high_point": "3642.0",
    "id": "0.24",
    "link": "http://www.wta.org/go-hiking/hikes/denny-creek",
    "name": "Denny Creek",
    "rating": "3.95",
    "region": "Snoqualmie Region -- Snoqualmie Pass",
    "type": "Roundtrip"
},{
    "distance": "23.0",
    "features": [
        "Wildlife",
        "Good for kids",
        "Dogs allowed on leash",
        "Fall foliage",
        "Rivers"
    ],
    "id": "0.25",
    "link": "http://www.wta.org/go-hiking/hikes/sacagawea-heritage-trail",
    "name": "Sacagawea Heritage Trail",
    "rating": "0.00",
    "region": "Central Washington -- Tri-Cities",
    "type": "Trail system"
},{
    "distance": "10.0",
    "features": [
        "Wildflowers/Meadows",
        "Mountain views",
        "Wildlife",
        "Good for kids",
        "Dogs allowed on leash",
        "Rivers"
    ],
    "gain": "350",
    "high_point": "3500.0",
    "id": "0.26",
    "link": "http://www.wta.org/go-hiking/hikes/tieton-river-meadows-snowshoe",
    "name": "Tieton River Meadows Snowshoe",
    "rating": "4.00",
    "region": "South Cascades -- Goat Rocks",
    "type": "Roundtrip"
},{
    "distance": "7.5",
    "features": [
        "Wildflowers/Meadows",
        "Mountain views",
        "Dogs allowed on leash",
        "Good for kids",
        "Rivers"
    ],
    "gain": "300",
    "high_point": "1640.0",
    "id": "0.27",
    "link": "http://www.wta.org/go-hiking/hikes/lester-ghost-town",
    "name": "Lester Ghost Town",
    "rating": "5.00",
    "region": "Snoqualmie Region -- Cle Elum Area",
    "type": "Roundtrip"
},{
    "distance": "8.0",
    "features": [
        "Wildflowers/Meadows",
        "Ridges/passes",
        "Fall foliage",
        "Mountain views",
        "Summits",
        "Lakes",
        "Waterfalls"
    ],
    "gain": "3300",
    "high_point": "6900.0",
    "id": "0.28",
    "link": "http://www.wta.org/go-hiking/hikes/hidden-lake-lookout",
    "name": "Hidden Lake Lookout",
    "rating": "4.47",
    "region": "North Cascades -- North Cascades Highway - Hwy 20",
    "type": "Roundtrip"
},{
    "distance": "16.0",
    "features": [
        "Lakes",
        "Rivers",
        "Wildflowers/Meadows",
        "Mountain views",
        "Established campsites",
        "Waterfalls",
        "Old growth",
        "Fall foliage"
    ],
    "gain": "2650",
    "high_point": "5700.0",
    "id": "0.29",
    "link": "http://www.wta.org/go-hiking/hikes/royal-basin",
    "name": "Royal Basin - Royal Lake",
    "rating": "3.86",
    "region": "Olympic Peninsula -- Hood Canal",
    "type": "Roundtrip"
},{
    "distance": "3.5",
    "features": [
        "Wildflowers/Meadows",
        "Wildlife",
        "Good for kids",
        "Dogs allowed on leash",
        "Fall foliage"
    ],
    "gain": "520",
    "high_point": "1100.0",
    "id": "1.0",
    "link": "http://www.wta.org/go-hiking/hikes/tiger-mountain-trail-south",
    "name": "Tiger Mountain Trail South",
    "rating": "2.83",
    "region": "Issaquah Alps -- Tiger Mountain",
    "type": "Roundtrip"
},{
    "distance": "8.4",
    "features": [
        "Wildflowers/Meadows",
        "Old growth",
        "Good for kids",
        "Established campsites",
        "Rivers"
    ],
    "gain": "800",
    "high_point": "1500.0",
    "id": "1.1",
    "link": "http://www.wta.org/go-hiking/hikes/gray-wolf-river",
    "name": "Lower Gray Wolf River",
    "rating": "3.80",
    "region": "Olympic Peninsula -- Hood Canal",
    "type": "Roundtrip"
},{
    "distance": "11.0",
    "features": [
        "Dogs allowed on leash",
        "Established campsites",
        "Waterfalls",
        "Old growth",
        "Good for kids",
        "Rivers"
    ],
    "gain": "1200",
    "high_point": "3150.0",
    "id": "1.2",
    "link": "http://www.wta.org/go-hiking/hikes/deception-creek",
    "name": "Deception Creek",
    "rating": "3.83",
    "region": "Central Cascades -- Stevens Pass - West",
    "type": "Roundtrip"
},{
    "distance": "2.8",
    "features": [
        "Wildflowers/Meadows",
        "Mountain views",
        "Wildlife",
        "Good for kids",
        "Dogs allowed on leash",
        "Fall foliage",
        "Coast"
    ],
    "gain": "140",
    "high_point": "325.0",
    "id": "1.3",
    "link": "http://www.wta.org/go-hiking/hikes/seattle-magnolia-area-beach-discovery-park",
    "name": "Discovery Park Loop Trail",
    "rating": "3.50",
    "region": "Puget Sound and Islands -- Seattle-Tacoma Area",
    "type": "Roundtrip"
},{
    "distance": "10.5",
    "features": [
        "Ridges/passes",
        "Summits",
        "Wildflowers/Meadows",
        "Mountain views",
        "Established campsites",
        "Waterfalls",
        "Old growth",
        "Fall foliage"
    ],
    "gain": "3400",
    "high_point": "5250.0",
    "id": "1.4",
    "link": "http://www.wta.org/go-hiking/hikes/perry-creek",
    "name": "Perry Creek",
    "rating": "4.08",
    "region": "North Cascades -- Mountain Loop Highway",
    "type": "Roundtrip"
},{
    "distance": "5.0",
    "features": [
        "Wildflowers/Meadows",
        "Dogs allowed on leash",
        "Good for kids",
        "Waterfalls"
    ],
    "gain": "450",
    "high_point": "705.0",
    "id": "1.5",
    "link": "http://www.wta.org/go-hiking/hikes/cherry-creek-falls",
    "name": "Cherry Creek Falls",
    "rating": "3.69",
    "region": "Central Cascades -- Stevens Pass - West",
    "type": "Roundtrip"
},{
    "distance": "8.0",
    "features": [
        "Mountain views",
        "Established campsites",
        "Summits",
        "Lakes",
        "Fall foliage",
        "Rivers"
    ],
    "gain": "2280",
    "high_point": "5580.0",
    "id": "1.6",
    "link": "http://www.wta.org/go-hiking/hikes/colchuck-lake",
    "name": "Colchuck Lake",
    "rating": "4.23",
    "region": "Central Cascades -- Leavenworth Area",
    "type": "Roundtrip"
},{
    "distance": "8.6",
    "features": [
        "Wildflowers/Meadows",
        "Ridges/passes",
        "Wildlife",
        "Mountain views",
        "Dogs allowed on leash",
        "Summits",
        "Lakes",
        "Fall foliage"
    ],
    "gain": "3300",
    "high_point": "5353.0",
    "id": "1.7",
    "link": "http://www.wta.org/go-hiking/hikes/bare-mountain",
    "name": "Bare Mountain",
    "rating": "3.93",
    "region": "Snoqualmie Region -- North Bend Area",
    "type": "Roundtrip"
},{
    "distance": "8.2",
    "features": [
        "Wildflowers/Meadows",
        "Mountain views",
        "Dogs allowed on leash",
        "Established campsites",
        "Old growth",
        "Summits",
        "Fall foliage"
    ],
    "gain": "3950",
    "high_point": "5760.0",
    "id": "1.8",
    "link": "http://www.wta.org/go-hiking/hikes/mount-dickerman",
    "name": "Mount Dickerman",
    "rating": "4.44",
    "region": "North Cascades -- Mountain Loop Highway",
    "type": "Roundtrip"
},{
    "distance": "7.0",
    "features": [
        "Old growth",
        "Good for kids",
        "Dogs allowed on leash",
        "Fall foliage",
        "Rivers"
    ],
    "gain": "625",
    "high_point": "750.0",
    "id": "1.9",
    "link": "http://www.wta.org/go-hiking/hikes/lime-kiln",
    "name": "Lime Kiln Trail",
    "rating": "3.45",
    "region": "North Cascades -- Mountain Loop Highway",
    "type": "Roundtrip"
},{
    "distance": "6.0",
    "features": [
        "Mountain views",
        "Wildlife",
        "Good for kids",
        "Dogs allowed on leash",
        "Rivers"
    ],
    "high_point": "150.0",
    "id": "1.10",
    "link": "http://www.wta.org/go-hiking/hikes/whitehorse-rail-trail",
    "name": "Whitehorse Trail - Swede Heaven to Darrington",
    "rating": "3.67",
    "region": "North Cascades -- Mountain Loop Highway",
    "type": "One-way"
},{
    "distance": "12.0",
    "features": [
        "Wildflowers/Meadows",
        "Mountain views",
        "Dogs allowed on leash",
        "Ridges/passes",
        "Old growth",
        "Fall foliage"
    ],
    "gain": "2600",
    "high_point": "5400.0",
    "id": "1.11",
    "link": "http://www.wta.org/go-hiking/hikes/kendall-katwalk",
    "name": "Kendall Katwalk",
    "rating": "3.96",
    "region": "Snoqualmie Region -- Snoqualmie Pass",
    "type": "Roundtrip"
},{
    "distance": "8.2",
    "features": [
        "Mountain views",
        "Lakes",
        "Fall foliage",
        "Ridges/passes"
    ],
    "gain": "970",
    "high_point": "4752.0",
    "id": "1.12",
    "link": "http://www.wta.org/go-hiking/hikes/harrys-ridge",
    "name": "Harry's Ridge",
    "rating": "3.59",
    "region": "South Cascades -- Mount St. Helens",
    "type": "Roundtrip"
},{
    "distance": "5.2",
    "features": [
        "Mountain views",
        "Dogs allowed on leash",
        "Summits"
    ],
    "gain": "1700",
    "high_point": "5970.0",
    "id": "1.13",
    "link": "http://www.wta.org/go-hiking/hikes/round-mountain-1",
    "name": "Round Mountain - Stevens",
    "rating": "3.33",
    "region": "Central Cascades -- Stevens Pass - East",
    "type": "Roundtrip"
},{
    "distance": "7.4",
    "features": [
        "Wildlife",
        "Good for kids",
        "Dogs allowed on leash",
        "Fall foliage",
        "Rivers"
    ],
    "gain": "300",
    "id": "1.14",
    "link": "http://www.wta.org/go-hiking/hikes/yale-reservoir-logging-road-trail",
    "name": "Yale Reservoir Logging Road Trail",
    "rating": "0.00",
    "region": "South Cascades -- Mount St. Helens",
    "type": "Roundtrip"
},{
    "distance": "5.6",
    "features": [
        "Mountain views",
        "Wildlife",
        "Good for kids",
        "Lakes"
    ],
    "gain": "800",
    "high_point": "7200.0",
    "id": "1.15",
    "link": "http://www.wta.org/go-hiking/hikes/mount-fremont-lookout",
    "name": "Fremont Lookout",
    "rating": "4.33",
    "region": "Mount Rainier Area -- NE - Sunrise/White River",
    "type": "Roundtrip"
},{
    "distance": "3.7",
    "features": [
        "Wildflowers/Meadows",
        "Mountain views",
        "Wildlife",
        "Established campsites",
        "Good for kids",
        "Lakes"
    ],
    "gain": "200",
    "high_point": "5400.0",
    "id": "1.16",
    "link": "http://www.wta.org/go-hiking/hikes/shadow-lake-sunrise-camp-loop",
    "name": "Shadow Lake - Sunrise Camp Loop",
    "rating": "4.12",
    "region": "Mount Rainier Area -- NE - Sunrise/White River",
    "type": "Roundtrip"
},{
    "distance": "3.5",
    "features": [],
    "gain": "275",
    "high_point": "2310.0",
    "id": "1.17",
    "link": "http://www.wta.org/go-hiking/hikes/z-lake",
    "name": "Z Lake",
    "rating": "0.00",
    "region": "Eastern Washington",
    "type": "Roundtrip"
},{
    "distance": "6.4",
    "features": [],
    "gain": "1365",
    "high_point": "5600.0",
    "id": "1.18",
    "link": "http://www.wta.org/go-hiking/hikes/ryan-cabin",
    "name": "Ryan Cabin",
    "rating": "4.33",
    "region": "Eastern Washington -- Okanogan Highlands/Kettle River Range",
    "type": "Roundtrip"
},{
    "distance": "9.4",
    "features": [
        "Wildflowers/Meadows",
        "Dogs allowed on leash",
        "Good for kids",
        "Rivers"
    ],
    "gain": "730",
    "high_point": "540.0",
    "id": "1.19",
    "link": "http://www.wta.org/go-hiking/hikes/mosier-twin-tunnels",
    "name": "Mosier Twin Tunnels",
    "rating": "2.00",
    "region": "Southwest Washington -- Columbia River Gorge - OR",
    "type": "Roundtrip"
},{
    "distance": "3.4",
    "features": [],
    "gain": "620",
    "high_point": "660.0",
    "id": "1.20",
    "link": "http://www.wta.org/go-hiking/hikes/elowah-and-upper-mccord-creek-falls",
    "name": "Elowah and Upper McCord Creek Falls",
    "rating": "4.00",
    "region": "Southwest Washington -- Columbia River Gorge - OR",
    "type": "Roundtrip"
},{
    "distance": "12.0",
    "features": [
        "Mountain views",
        "Lakes",
        "Established campsites",
        "Ridges/passes"
    ],
    "gain": "1800",
    "high_point": "5800.0",
    "id": "1.21",
    "link": "http://www.wta.org/go-hiking/hikes/walupt-creek-loop",
    "name": "Walupt Lake and Walupt Creek",
    "rating": "3.60",
    "region": "South Cascades -- Goat Rocks",
    "type": "Roundtrip"
},{
    "distance": "15.0",
    "features": [
        "Wildflowers/Meadows",
        "Ridges/passes",
        "Wildlife",
        "Established campsites",
        "Mountain views",
        "Waterfalls",
        "Rivers"
    ],
    "gain": "2900",
    "high_point": "5914.0",
    "id": "1.22",
    "link": "http://www.wta.org/go-hiking/hikes/indian-bar",
    "name": "Indian Bar - Cowlitz Divide",
    "rating": "3.60",
    "region": "Mount Rainier Area -- SE - Cayuse Pass/Steven's Canyon",
    "type": "Roundtrip"
},{
    "distance": "14.0",
    "features": [
        "Mountain views",
        "Dogs allowed on leash",
        "Established campsites",
        "Waterfalls",
        "Lakes",
        "Rivers"
    ],
    "gain": "2024",
    "high_point": "4624.0",
    "id": "1.23",
    "link": "http://www.wta.org/go-hiking/hikes/alaska-lake",
    "name": "Gold Creek - Alaska Lake",
    "rating": "2.45",
    "region": "Snoqualmie Region -- Snoqualmie Pass",
    "type": "Roundtrip"
},{
    "distance": "3.2",
    "features": [
        "Mountain views",
        "Lakes"
    ],
    "gain": "1140",
    "high_point": "4140.0",
    "id": "1.24",
    "link": "http://www.wta.org/go-hiking/hikes/lanham-lake",
    "name": "Lanham Lake",
    "rating": "2.25",
    "region": "Central Cascades -- Stevens Pass - East",
    "type": "Roundtrip"
},{
    "distance": "10.0",
    "features": [
        "Wildflowers/Meadows",
        "Mountain views",
        "Lakes",
        "Established campsites",
        "Rivers"
    ],
    "gain": "1200",
    "high_point": "5255.0",
    "id": "1.25",
    "link": "http://www.wta.org/go-hiking/hikes/surprise-lake-2",
    "name": "Surprise Lake",
    "rating": "3.30",
    "region": "South Cascades -- Goat Rocks",
    "type": "Roundtrip"
},{
    "distance": "2.5",
    "features": [
        "Wildlife",
        "Good for kids",
        "Dogs allowed on leash"
    ],
    "gain": "800",
    "high_point": "1400.0",
    "id": "1.26",
    "link": "http://www.wta.org/go-hiking/hikes/boulder-garden-loop",
    "name": "Boulder Garden Loop",
    "rating": "4.00",
    "region": "Snoqualmie Region -- North Bend Area",
    "type": "Roundtrip"
},{
    "distance": "5.2",
    "features": [
        "Summits",
        "Wildflowers/Meadows",
        "Mountain views",
        "Dogs allowed on leash",
        "Old growth"
    ],
    "gain": "4000",
    "high_point": "4822.0",
    "id": "1.27",
    "link": "http://www.wta.org/go-hiking/hikes/mailbox-peak-old-trail",
    "name": "Mailbox Peak - Old Trail",
    "rating": "4.33",
    "region": "Snoqualmie Region -- North Bend Area",
    "type": "Roundtrip"
},{
    "distance": "8.0",
    "features": [
        "Wildflowers/Meadows",
        "Ridges/passes",
        "Dogs allowed on leash",
        "Established campsites",
        "Mountain views",
        "Summits",
        "Good for kids",
        "Fall foliage"
    ],
    "gain": "1200",
    "high_point": "5495.0",
    "id": "1.28",
    "link": "http://www.wta.org/go-hiking/hikes/tonga-ridge",
    "name": "Tonga Ridge / Mount Sawyer",
    "rating": "3.43",
    "region": "Central Cascades -- Stevens Pass - West",
    "type": "Roundtrip"
},{
    "distance": "5.1",
    "features": [
        "Mountain views",
        "Old growth",
        "Dogs allowed on leash",
        "Rivers"
    ],
    "gain": "1750",
    "high_point": "2120.0",
    "id": "1.29",
    "link": "http://www.wta.org/go-hiking/hikes/talus-loop",
    "name": "Talus Loop",
    "rating": "3.30",
    "region": "Snoqualmie Region -- North Bend Area",
    "type": "Roundtrip"
}
,{
    "distance": "4.0",
    "features": [
        "Wildflowers/Meadows",
        "Mountain views",
        "Wildlife",
        "Lakes",
        "Dogs allowed on leash"
    ],
    "gain": "1100",
    "high_point": "5478.0",
    "id": "10.0",
    "link": "http://www.wta.org/go-hiking/hikes/mount-beljica",
    "name": "Mount Beljica",
    "rating": "4.00",
    "region": "Mount Rainier Area -- SW - Longmire/Paradise",
    "type": "Roundtrip"
},{
    "distance": "10.0",
    "features": [
        "Mountain views",
        "Lakes"
    ],
    "gain": "2000",
    "high_point": "4400.0",
    "id": "10.1",
    "link": "http://www.wta.org/go-hiking/hikes/rainbow-lake-1",
    "name": "Island Lake - Rainbow Lake",
    "rating": "3.62",
    "region": "Snoqualmie Region -- Snoqualmie Pass",
    "type": "Roundtrip"
},{
    "distance": "3.2",
    "features": [
        "Mountain views",
        "Summits"
    ],
    "gain": "1365",
    "high_point": "5685.0",
    "id": "10.2",
    "link": "http://www.wta.org/go-hiking/hikes/high-rock",
    "name": "High Rock",
    "rating": "4.30",
    "region": "South Cascades -- White Pass/Cowlitz River Valley",
    "type": "Roundtrip"
},{
    "distance": "3.0",
    "features": [
        "Wildflowers/Meadows",
        "Wildlife",
        "Good for kids",
        "Lakes"
    ],
    "id": "10.3",
    "link": "http://www.wta.org/go-hiking/hikes/the-tacoma-nature-center",
    "name": "Tacoma Nature Center Interpretive Walks",
    "rating": "3.33",
    "region": "Puget Sound and Islands -- Seattle-Tacoma Area",
    "type": "Roundtrip"
},{
    "distance": "7.5",
    "features": [
        "Wildflowers/Meadows",
        "Mountain views",
        "Ridges/passes",
        "Summits",
        "Good for kids",
        "Lakes"
    ],
    "gain": "1100",
    "high_point": "5900.0",
    "id": "10.4",
    "link": "http://www.wta.org/go-hiking/hikes/tolmie-peak",
    "name": "Tolmie Peak Lookout - Eunice Lake",
    "rating": "4.29",
    "region": "Mount Rainier Area -- NW - Carbon River/Mowich",
    "type": "Roundtrip"
},{
    "distance": "5.0",
    "features": [
        "Old growth",
        "Rivers",
        "Wildlife",
        "Waterfalls"
    ],
    "gain": "500",
    "high_point": "1100.0",
    "id": "10.5",
    "link": "http://www.wta.org/go-hiking/hikes/little-mashel-falls",
    "name": "Pack Forest - Little Mashel Falls",
    "rating": "3.67",
    "region": "Puget Sound and Islands -- Seattle-Tacoma Area",
    "type": "Roundtrip"
},{
    "distance": "26.0",
    "features": [
        "Wildflowers/Meadows",
        "Ridges/passes",
        "Established campsites",
        "Waterfalls",
        "Old growth",
        "Good for kids",
        "Rivers"
    ],
    "gain": "1700",
    "id": "10.6",
    "link": "http://www.wta.org/go-hiking/hikes/enchanted-valley",
    "name": "Enchanted Valley",
    "rating": "3.67",
    "region": "Olympic Peninsula -- Pacific Coast",
    "type": "Roundtrip"
},{
    "distance": "2.4",
    "features": [
        "Wildflowers/Meadows",
        "Mountain views",
        "Wildlife",
        "Good for kids",
        "Ridges/passes"
    ],
    "gain": "300",
    "high_point": "6000.0",
    "id": "10.7",
    "link": "http://www.wta.org/go-hiking/hikes/rainier-view",
    "name": "Rainier View",
    "rating": "4.25",
    "region": "Mount Rainier Area",
    "type": "Roundtrip"
},{
    "distance": "7.0",
    "features": [
        "Wildflowers/Meadows",
        "Mountain views",
        "Fall foliage",
        "Ridges/passes"
    ],
    "gain": "2800",
    "high_point": "6500.0",
    "id": "10.8",
    "link": "http://www.wta.org/go-hiking/hikes/easy-pass",
    "name": "Easy Pass",
    "rating": "3.62",
    "region": "North Cascades -- North Cascades Highway - Hwy 20",
    "type": "Roundtrip"
},{
    "distance": "14.4",
    "features": [
        "Wildflowers/Meadows",
        "Dogs allowed on leash"
    ],
    "gain": "3700",
    "high_point": "5816.0",
    "id": "10.9",
    "link": "http://www.wta.org/go-hiking/hikes/benchmark-mountain",
    "name": "West Cady Ridge to Benchmark Mountain",
    "rating": "3.43",
    "region": "Central Cascades -- Stevens Pass - West",
    "type": "Roundtrip"
},{
    "distance": "5.4",
    "features": [
        "Wildflowers/Meadows",
        "Mountain views",
        "Dogs allowed on leash",
        "Summits"
    ],
    "gain": "2300",
    "high_point": "5327.0",
    "id": "10.10",
    "link": "http://www.wta.org/go-hiking/hikes/mount-pilchuck",
    "name": "Mount Pilchuck",
    "rating": "4.43",
    "region": "North Cascades -- Mountain Loop Highway",
    "type": "Roundtrip"
},{
    "distance": "9.6",
    "features": [
        "Mountain views",
        "Waterfalls",
        "Old growth",
        "Good for kids",
        "Lakes",
        "Rivers"
    ],
    "gain": "1150",
    "high_point": "3270.0",
    "id": "10.11",
    "link": "http://www.wta.org/go-hiking/hikes/green-lake",
    "name": "Green Lake",
    "rating": "3.78",
    "region": "Mount Rainier Area -- NW - Carbon River/Mowich",
    "type": "Roundtrip"
},{
    "distance": "0.8",
    "features": [
        "Old growth",
        "Good for kids"
    ],
    "gain": "100",
    "high_point": "600.0",
    "id": "10.12",
    "link": "http://www.wta.org/go-hiking/hikes/hall-of-mosses",
    "name": "Hall of Mosses",
    "rating": "4.57",
    "region": "Olympic Peninsula -- Pacific Coast",
    "type": "Roundtrip"
},{
    "distance": "6.0",
    "features": [
        "Wildflowers/Meadows",
        "Dogs allowed on leash",
        "Summits",
        "Rivers"
    ],
    "gain": "2800",
    "high_point": "2948.0",
    "id": "10.13",
    "link": "http://www.wta.org/go-hiking/hikes/dog-mountain",
    "name": "Dog Mountain",
    "rating": "4.39",
    "region": "Southwest Washington -- Columbia River Gorge - WA",
    "type": "Roundtrip"
},{
    "distance": "8.0",
    "features": [
        "Wildflowers/Meadows",
        "Ridges/passes",
        "Wildlife",
        "Mountain views",
        "Summits",
        "Lakes"
    ],
    "gain": "1300",
    "high_point": "7000.0",
    "id": "10.14",
    "link": "http://www.wta.org/go-hiking/hikes/skyscraper-pass",
    "name": "Skyscraper Mountain",
    "rating": "3.75",
    "region": "Mount Rainier Area -- NE - Sunrise/White River",
    "type": "Roundtrip"
},{
    "distance": "5.5",
    "features": [
        "Wildflowers/Meadows",
        "Mountain views",
        "Wildlife",
        "Rivers",
        "Waterfalls"
    ],
    "gain": "1450",
    "high_point": "6800.0",
    "id": "10.15",
    "link": "http://www.wta.org/go-hiking/hikes/skyline",
    "name": "Skyline Trail Loop",
    "rating": "4.47",
    "region": "Mount Rainier Area -- SW - Longmire/Paradise",
    "type": "Roundtrip"
},{
    "distance": "12.0",
    "features": [
        "Ridges/passes",
        "Wildlife",
        "Lakes",
        "Wildflowers/Meadows",
        "Mountain views",
        "Established campsites",
        "Waterfalls",
        "Old growth",
        "Fall foliage"
    ],
    "gain": "2950",
    "high_point": "6800.0",
    "id": "10.16",
    "link": "http://www.wta.org/go-hiking/hikes/summerland-panhandle-gap",
    "name": "Summerland - Panhandle Gap",
    "rating": "4.43",
    "region": "Mount Rainier Area -- NE - Sunrise/White River",
    "type": "Roundtrip"
},{
    "features": [],
    "id": "10.17",
    "link": "http://www.wta.org/go-hiking/hikes/copy_of_pioneer-park",
    "name": "Pioneer Park",
    "rating": "2.00",
    "region": "Puget Sound and Islands -- Bellingham Area"
},{
    "distance": "2.6",
    "features": [
        "Mountain views",
        "Summits"
    ],
    "gain": "1270",
    "id": "10.18",
    "link": "http://www.wta.org/go-hiking/hikes/index-town-wall",
    "name": "Index Town Wall",
    "rating": "3.40",
    "region": "Central Cascades -- Stevens Pass - West",
    "type": "Roundtrip"
},{
    "distance": "8.2",
    "features": [
        "Wildflowers/Meadows",
        "Mountain views",
        "Dogs allowed on leash",
        "Established campsites",
        "Good for kids",
        "Lakes"
    ],
    "gain": "1900",
    "high_point": "4900.0",
    "id": "10.19",
    "link": "http://www.wta.org/go-hiking/hikes/lake-ann",
    "name": "Lake Ann (Mount Baker Highway)",
    "rating": "4.06",
    "region": "North Cascades -- Mount Baker Area",
    "type": "Roundtrip"
},{
    "distance": "4.4",
    "features": [
        "Dogs allowed on leash",
        "Good for kids",
        "Lakes",
        "Established campsites"
    ],
    "gain": "900",
    "high_point": "5200.0",
    "id": "10.20",
    "link": "http://www.wta.org/go-hiking/hikes/twin-sisters",
    "name": "Twin Sisters Lakes",
    "rating": "3.11",
    "region": "South Cascades -- White Pass/Cowlitz River Valley",
    "type": "Roundtrip"
},{
    "distance": "16.0",
    "features": [
        "Ridges/passes",
        "Wildlife",
        "Rivers",
        "Wildflowers/Meadows",
        "Mountain views",
        "Established campsites",
        "Old growth",
        "Fall foliage"
    ],
    "high_point": "5600.0",
    "id": "10.21",
    "link": "http://www.wta.org/go-hiking/hikes/meander-meadow-dishpan-gap-cady-ridge-loop",
    "name": "Meander Meadow - Dishpan Gap - Cady Ridge Loop",
    "rating": "4.00",
    "region": "Central Cascades -- Stevens Pass - East",
    "type": "Roundtrip"
},{
    "distance": "6.0",
    "features": [
        "Wildflowers/Meadows",
        "Old growth",
        "Lakes",
        "Fall foliage"
    ],
    "gain": "2800",
    "high_point": "6350.0",
    "id": "10.22",
    "link": "http://www.wta.org/go-hiking/hikes/sunrise-lake-1",
    "name": "Copper Glance Lake",
    "rating": "4.17",
    "region": "North Cascades -- Pasayten",
    "type": "Roundtrip"
},{
    "distance": "2.0",
    "features": [
        "Dogs allowed on leash",
        "Good for kids"
    ],
    "id": "10.23",
    "link": "http://www.wta.org/go-hiking/hikes/east-access",
    "name": "Squak Mountain Access Trail",
    "rating": "3.25",
    "region": "Issaquah Alps -- Squak Mountain",
    "type": "Roundtrip"
},{
    "distance": "11.0",
    "features": [
        "Mountain views",
        "Wildlife",
        "Good for kids",
        "Coast"
    ],
    "gain": "130",
    "high_point": "130.0",
    "id": "10.24",
    "link": "http://www.wta.org/go-hiking/hikes/dungeness-national-wildlife-refuge",
    "name": "Dungeness Spit",
    "rating": "3.47",
    "region": "Olympic Peninsula -- Northern Coast",
    "type": "Roundtrip"
},{
    "distance": "4.4",
    "features": [
        "Mountain views",
        "Dogs allowed on leash",
        "Summits",
        "Good for kids",
        "Fall foliage"
    ],
    "id": "10.25",
    "link": "http://www.wta.org/go-hiking/hikes/puffer-butte",
    "name": "Field Springs State Park - Puffer Butte",
    "rating": "4.00",
    "region": "Eastern Washington -- Palouse and Blue Mountains",
    "type": "Roundtrip"
},{
    "distance": "5.0",
    "features": [
        "Wildflowers/Meadows",
        "Wildlife",
        "Coast",
        "Good for kids",
        "Rivers"
    ],
    "id": "10.26",
    "link": "http://www.wta.org/go-hiking/hikes/nisqually-nwr",
    "name": "Billy Frank Jr. Nisqually National Wildlife Area",
    "rating": "3.95",
    "region": "Puget Sound and Islands -- Seattle-Tacoma Area",
    "type": "Roundtrip"
},{
    "distance": "2.4",
    "features": [
        "Dogs allowed on leash",
        "Good for kids",
        "Rivers"
    ],
    "gain": "350",
    "high_point": "1050.0",
    "id": "10.27",
    "link": "http://www.wta.org/go-hiking/hikes/old-robe-canyon",
    "name": "Old Robe Canyon",
    "rating": "3.50",
    "region": "North Cascades -- Mountain Loop Highway",
    "type": "Roundtrip"
},{
    "distance": "7.0",
    "features": [
        "Wildflowers/Meadows",
        "Mountain views",
        "Old growth",
        "Waterfalls",
        "Ridges/passes"
    ],
    "gain": "3135",
    "high_point": "5900.0",
    "id": "10.28",
    "link": "http://www.wta.org/go-hiking/hikes/mildred-point",
    "name": "Mildred Point",
    "rating": "4.60",
    "region": "Mount Rainier Area -- SW - Longmire/Paradise",
    "type": "Roundtrip"
},{
    "distance": "6.0",
    "features": [
        "Wildflowers/Meadows",
        "Mountain views",
        "Rivers",
        "Ridges/passes",
        "Waterfalls"
    ],
    "gain": "2150",
    "high_point": "5850.0",
    "id": "10.29",
    "link": "http://www.wta.org/go-hiking/hikes/van-trump-park",
    "name": "Van Trump Park",
    "rating": "4.13",
    "region": "Mount Rainier Area -- SW - Longmire/Paradise",
    "type": "Roundtrip"
}
,{
    "features": [],
    "id": "100.0",
    "link": "http://www.wta.org/go-hiking/hikes/company-creek",
    "name": "Company Creek",
    "rating": "2.75",
    "region": "Central Cascades -- Entiat Mountains/Lake Chelan"
},{
    "features": [],
    "id": "100.1",
    "link": "http://www.wta.org/go-hiking/hikes/coldwater-ridge",
    "name": "Coldwater Ridge",
    "rating": "3.17",
    "region": "South Cascades"
},{
    "features": [],
    "id": "100.2",
    "link": "http://www.wta.org/go-hiking/hikes/colockum-wildlife-recreation-area",
    "name": "Colockum Wildlife Recreation Area",
    "rating": "2.75",
    "region": "Eastern Washington"
},{
    "features": [],
    "id": "100.3",
    "link": "http://www.wta.org/go-hiking/hikes/cle-elum-ridge",
    "name": "Cle Elum Ridge",
    "rating": "3.33",
    "region": "Snoqualmie Region"
},{
    "features": [],
    "id": "100.4",
    "link": "http://www.wta.org/go-hiking/hikes/coal-lake",
    "name": "Coal Lake",
    "rating": "3.40",
    "region": "North Cascades -- Mountain Loop Highway"
},{
    "distance": "6.0",
    "features": [
        "Mountain views",
        "Old growth"
    ],
    "gain": "900",
    "high_point": "2400.0",
    "id": "100.5",
    "link": "http://www.wta.org/go-hiking/hikes/coal-creek-snowshoe",
    "name": "Coal Creek Snowshoe",
    "rating": "1.50",
    "region": "North Cascades -- Mountain Loop Highway",
    "type": "Roundtrip"
},{
    "features": [],
    "id": "100.6",
    "link": "http://www.wta.org/go-hiking/hikes/copper-creek",
    "name": "Copper Creek",
    "rating": "3.50",
    "region": "Central Cascades -- Entiat Mountains/Lake Chelan"
},{
    "features": [],
    "id": "100.7",
    "link": "http://www.wta.org/go-hiking/hikes/chief-old-bones",
    "name": "Chief Old Bones",
    "rating": "3.75",
    "region": "Eastern Washington"
},{
    "distance": "10.0",
    "features": [
        "Mountain views"
    ],
    "gain": "2300",
    "high_point": "5300.0",
    "id": "100.8",
    "link": "http://www.wta.org/go-hiking/hikes/commonwealth-basin-snowshoe",
    "name": "Commonwealth Basin Snowshoe",
    "rating": "3.71",
    "region": "Snoqualmie Region -- Snoqualmie Pass",
    "type": "Roundtrip"
},{
    "features": [],
    "id": "100.9",
    "link": "http://www.wta.org/go-hiking/hikes/clallam-bay-spit",
    "name": "Clallam Bay Spit",
    "rating": "2.75",
    "region": "Olympic Peninsula -- Northern Coast"
},{
    "features": [],
    "id": "100.10",
    "link": "http://www.wta.org/go-hiking/hikes/cooney-lake",
    "name": "Cooney Lake",
    "rating": "2.50",
    "region": "North Cascades -- Methow/Sawtooth"
},{
    "features": [],
    "id": "100.11",
    "link": "http://www.wta.org/go-hiking/hikes/clark-ridge",
    "name": "Clark Ridge",
    "rating": "1.50",
    "region": "Eastern Washington"
},{
    "features": [],
    "id": "100.12",
    "link": "http://www.wta.org/go-hiking/hikes/cispus-lookout",
    "name": "Cispus Lookout",
    "rating": "2.67",
    "region": "South Cascades"
},{
    "features": [],
    "id": "100.13",
    "link": "http://www.wta.org/go-hiking/hikes/chilliwack-river",
    "name": "Chilliwack River",
    "rating": "3.25",
    "region": "North Cascades"
},{
    "distance": "1.0",
    "features": [],
    "high_point": "7337.0",
    "id": "100.14",
    "link": "http://www.wta.org/go-hiking/hikes/cispus-braille",
    "name": "Cispus Braille Trail",
    "rating": "2.75",
    "region": "South Cascades -- Dark Divide",
    "type": "Roundtrip"
},{
    "features": [],
    "id": "100.15",
    "link": "http://www.wta.org/go-hiking/hikes/cold-springs",
    "name": "Cold Springs",
    "rating": "3.50",
    "region": "South Cascades -- Mount Adams Area"
},{
    "distance": "10.0",
    "features": [
        "Wildflowers/Meadows",
        "Mountain views",
        "Old growth",
        "Dogs allowed on leash",
        "Fall foliage"
    ],
    "gain": "2700",
    "high_point": "5350.0",
    "id": "100.16",
    "link": "http://www.wta.org/go-hiking/hikes/commonwealth-basin",
    "name": "Commonwealth Basin",
    "rating": "3.38",
    "region": "Snoqualmie Region -- Snoqualmie Pass",
    "type": "Roundtrip"
},{
    "distance": "9.0",
    "features": [
        "Mountain views"
    ],
    "gain": "4500",
    "high_point": "6000.0",
    "id": "100.17",
    "link": "http://www.wta.org/go-hiking/hikes/coleman-glacier-snowshoe",
    "name": "Coleman Glacier Snowshoe",
    "rating": "3.50",
    "region": "North Cascades -- Mount Baker Area",
    "type": "Roundtrip"
},{
    "distance": "2.0",
    "features": [
        "Mountain views",
        "Wildlife",
        "Good for kids",
        "Dogs allowed on leash"
    ],
    "gain": "900",
    "high_point": "5400.0",
    "id": "100.18",
    "link": "http://www.wta.org/go-hiking/hikes/clearwest-peak",
    "name": "Clear West Peak",
    "rating": "2.25",
    "region": "Mount Rainier Area -- Chinook Pass - Hwy 410",
    "type": "Roundtrip"
},{
    "distance": "4.0",
    "features": [
        "Wildflowers/Meadows",
        "Wildlife",
        "Rivers"
    ],
    "high_point": "850.0",
    "id": "100.19",
    "link": "http://www.wta.org/go-hiking/hikes/chief-joseph-wildlife-area-grande-ronde-river",
    "name": "Chief Joseph Wildlife Area - Grande Ronde River",
    "rating": "3.00",
    "region": "Eastern Washington -- Palouse and Blue Mountains",
    "type": "Roundtrip"
},{
    "distance": "13.0",
    "features": [
        "Mountain views",
        "Wildlife",
        "Lakes"
    ],
    "gain": "2600",
    "high_point": "6376.0",
    "id": "100.20",
    "link": "http://www.wta.org/go-hiking/hikes/clear-lost",
    "name": "Clear Lost",
    "rating": "2.60",
    "region": "South Cascades -- White Pass/Cowlitz River Valley",
    "type": "Roundtrip"
},{
    "features": [],
    "id": "100.21",
    "link": "http://www.wta.org/go-hiking/hikes/chewuch",
    "name": "Chewuch River Trail",
    "rating": "3.50",
    "region": "North Cascades -- Pasayten"
},{
    "distance": "5.0",
    "features": [
        "Wildflowers/Meadows",
        "Wildlife"
    ],
    "gain": "209",
    "high_point": "2394.0",
    "id": "100.22",
    "link": "http://www.wta.org/go-hiking/hikes/chester-butte-wildlife-area",
    "name": "Chester Butte Wildlife Area",
    "rating": "3.50",
    "region": "Central Washington -- Wenatchee",
    "type": "Roundtrip"
},{
    "distance": "4.0",
    "features": [
        "Wildflowers/Meadows",
        "Wildlife"
    ],
    "gain": "1500",
    "id": "100.23",
    "link": "http://www.wta.org/go-hiking/hikes/chief-joseph-wildlife-area-green-gulch",
    "name": "Chief Joseph Wildlife Area - Green Gulch",
    "rating": "3.33",
    "region": "Eastern Washington -- Palouse and Blue Mountains",
    "type": "Roundtrip"
},{
    "features": [
        "Wildflowers/Meadows"
    ],
    "id": "100.24",
    "link": "http://www.wta.org/go-hiking/hikes/chancellor",
    "name": "Chancellor",
    "rating": "3.00",
    "region": "North Cascades -- North Cascades Highway - Hwy 20"
},{
    "features": [],
    "id": "100.25",
    "link": "http://www.wta.org/go-hiking/hikes/castle-pass",
    "name": "Castle Pass",
    "rating": "2.50",
    "region": "North Cascades"
},{
    "features": [],
    "id": "100.26",
    "link": "http://www.wta.org/go-hiking/hikes/cathedral",
    "name": "Cathedral",
    "rating": "2.75",
    "region": "Eastern Washington"
},{
    "features": [],
    "id": "100.27",
    "link": "http://www.wta.org/go-hiking/hikes/center-mountain-cutoff",
    "name": "Center Mountain Cutoff",
    "rating": "2.50",
    "region": "North Cascades"
},{
    "distance": "0.5",
    "features": [
        "Old growth",
        "Good for kids",
        "Wildlife"
    ],
    "gain": "80",
    "high_point": "1960.0",
    "id": "100.28",
    "link": "http://www.wta.org/go-hiking/hikes/carbon-river-rain-forest-nature-trail",
    "name": "Carbon River Rain Forest Nature Trail",
    "rating": "3.25",
    "region": "Mount Rainier Area -- NW - Carbon River/Mowich",
    "type": "Roundtrip"
},{
    "distance": "1.0",
    "features": [
        "Good for kids",
        "Waterfalls"
    ],
    "gain": "50",
    "high_point": "2200.0",
    "id": "100.29",
    "link": "http://www.wta.org/go-hiking/hikes/chenuis-falls",
    "name": "Chenuis Falls",
    "rating": "3.40",
    "region": "Mount Rainier Area -- NW - Carbon River/Mowich",
    "type": "Roundtrip"
}
,{
    "features": [],
    "id": "101.0",
    "link": "http://www.wta.org/go-hiking/hikes/campbell-lake",
    "name": "Campbell Lake",
    "rating": "2.00",
    "region": "Eastern Washington"
},{
    "features": [
        "Wildflowers/Meadows"
    ],
    "id": "101.1",
    "link": "http://www.wta.org/go-hiking/hikes/cedar-lake-way",
    "name": "Cedar Lake Way",
    "rating": "2.25",
    "region": "Olympic Peninsula"
},{
    "features": [],
    "id": "101.2",
    "link": "http://www.wta.org/go-hiking/hikes/cathedral-creek",
    "name": "Cathedral Creek",
    "rating": "1.75",
    "region": "North Cascades"
},{
    "features": [
        "Mountain views",
        "Fall foliage"
    ],
    "id": "101.3",
    "link": "http://www.wta.org/go-hiking/hikes/canyon-ridge",
    "name": "Canyon Ridge",
    "rating": "3.00",
    "region": "North Cascades -- Mount Baker Area"
},{
    "features": [],
    "id": "101.4",
    "link": "http://www.wta.org/go-hiking/hikes/castle-lake",
    "name": "Castle Lake",
    "rating": "2.67",
    "region": "South Cascades"
},{
    "features": [],
    "id": "101.5",
    "link": "http://www.wta.org/go-hiking/hikes/castle-mountain",
    "name": "Castle Mountain",
    "rating": "2.50",
    "region": "South Cascades"
},{
    "features": [],
    "id": "101.6",
    "link": "http://www.wta.org/go-hiking/hikes/canyon-lake",
    "name": "Canyon Lake",
    "rating": "2.00",
    "region": "Central Cascades -- Entiat Mountains/Lake Chelan"
},{
    "features": [],
    "id": "101.7",
    "link": "http://www.wta.org/go-hiking/hikes/carbon-trail",
    "name": "Carbon Trail",
    "rating": "3.40",
    "region": "South Cascades"
},{
    "distance": "1.0",
    "features": [
        "Old growth",
        "Wildlife"
    ],
    "gain": "400",
    "high_point": "1900.0",
    "id": "101.8",
    "link": "http://www.wta.org/go-hiking/hikes/cedar-flat",
    "name": "Cedar Flats Nature Trail",
    "rating": "2.50",
    "region": "Southwest Washington -- Lewis River Region",
    "type": "Roundtrip"
},{
    "distance": "10.0",
    "features": [
        "Mountain views"
    ],
    "gain": "4400",
    "high_point": "10000.0",
    "id": "101.9",
    "link": "http://www.wta.org/go-hiking/hikes/camp-muir-snowshoe",
    "name": "Camp Muir Snowshoe",
    "rating": "3.00",
    "region": "Mount Rainier Area -- SW - Longmire/Paradise",
    "type": "Roundtrip"
},{
    "features": [],
    "id": "101.10",
    "link": "http://www.wta.org/go-hiking/hikes/carlton-creek",
    "name": "Carlton Creek",
    "rating": "3.00",
    "region": "South Cascades"
},{
    "features": [],
    "id": "101.11",
    "link": "http://www.wta.org/go-hiking/hikes/cascade-creek",
    "name": "Cascade Creek",
    "rating": "2.50",
    "region": "Snoqualmie Region -- Salmon La Sac/Teanaway"
},{
    "distance": "9.0",
    "features": [
        "Wildflowers/Meadows",
        "Ridges/passes",
        "Wildlife",
        "Established campsites",
        "Mountain views",
        "Summits",
        "Lakes"
    ],
    "gain": "2200",
    "high_point": "5600.0",
    "id": "101.12",
    "link": "http://www.wta.org/go-hiking/hikes/cathedral-rock",
    "name": "Cathedral Rock",
    "rating": "3.09",
    "region": "Snoqualmie Region -- Snoqualmie Pass",
    "type": "Roundtrip"
},{
    "features": [],
    "id": "101.13",
    "link": "http://www.wta.org/go-hiking/hikes/cascade-loop-monument",
    "name": "Cascade Loop-Monument",
    "rating": "2.50",
    "region": "North Cascades"
},{
    "distance": "5.6",
    "features": [
        "Old growth",
        "Rivers",
        "Wildlife",
        "Waterfalls"
    ],
    "gain": "800",
    "high_point": "3600.0",
    "id": "101.14",
    "link": "http://www.wta.org/go-hiking/hikes/cedar-falls-snowshoe",
    "name": "Cedar Falls Snowshoe",
    "rating": "4.00",
    "region": "North Cascades -- North Cascades Highway - Hwy 20",
    "type": "Roundtrip"
},{
    "distance": "2.8",
    "features": [
        "Dogs allowed on leash",
        "Good for kids",
        "Lakes"
    ],
    "gain": "260",
    "high_point": "4250.0",
    "id": "101.15",
    "link": "http://www.wta.org/go-hiking/hikes/chenamus-lake",
    "name": "Chenamus Lake",
    "rating": "3.25",
    "region": "South Cascades -- Mount Adams Area",
    "type": "Roundtrip"
},{
    "distance": "3.0",
    "features": [
        "Wildflowers/Meadows",
        "Wildlife",
        "Rivers"
    ],
    "high_point": "350.0",
    "id": "101.16",
    "link": "http://www.wta.org/go-hiking/hikes/chamna-natural-preserve",
    "name": "Chamna Natural Preserve",
    "rating": "3.00",
    "region": "Central Washington -- Tri-Cities",
    "type": "Roundtrip"
},{
    "features": [],
    "id": "101.17",
    "link": "http://www.wta.org/go-hiking/hikes/chain-lakes",
    "name": "Chain Lakes",
    "rating": "3.67",
    "region": "Central Cascades"
},{
    "features": [],
    "id": "101.18",
    "link": "http://www.wta.org/go-hiking/hikes/canyon-lake-1",
    "name": "Canyon Lake",
    "rating": "2.75",
    "region": "North Cascades -- Mountain Loop Highway"
},{
    "features": [],
    "id": "101.19",
    "link": "http://www.wta.org/go-hiking/hikes/chair-lift",
    "name": "Chair Lift",
    "rating": "3.25",
    "region": "South Cascades"
},{
    "features": [],
    "id": "101.20",
    "link": "http://www.wta.org/go-hiking/hikes/cat-basin-primitive",
    "name": "Cat Basin Primitive",
    "rating": "2.75",
    "region": "Olympic Peninsula -- Northern Coast"
},{
    "features": [],
    "id": "101.21",
    "link": "http://www.wta.org/go-hiking/hikes/boulder-basin",
    "name": "Boulder Basin",
    "rating": "3.40",
    "region": "Central Cascades"
},{
    "distance": "10.0",
    "features": [
        "Wildflowers/Meadows",
        "Mountain views",
        "Fall foliage",
        "Ridges/passes"
    ],
    "gain": "3200",
    "high_point": "7782.0",
    "id": "101.22",
    "link": "http://www.wta.org/go-hiking/hikes/burch-mountain",
    "name": "Burch Mountain",
    "rating": "2.00",
    "region": "North Cascades -- Pasayten",
    "type": "Roundtrip"
},{
    "features": [],
    "id": "101.23",
    "link": "http://www.wta.org/go-hiking/hikes/camp-creek",
    "name": "Camp Creek",
    "rating": "3.33",
    "region": "Snoqualmie Region"
},{
    "features": [],
    "id": "101.24",
    "link": "http://www.wta.org/go-hiking/hikes/cameron-creek",
    "name": "Cameron Creek",
    "rating": "2.75",
    "region": "Olympic Peninsula -- Hood Canal"
},{
    "features": [],
    "id": "101.25",
    "link": "http://www.wta.org/go-hiking/hikes/buck-creek-3",
    "name": "Buck Creek",
    "rating": "2.00",
    "region": "South Cascades"
},{
    "features": [],
    "id": "101.26",
    "link": "http://www.wta.org/go-hiking/hikes/buck-creek-1",
    "name": "Buck Creek",
    "rating": "1.75",
    "region": "North Cascades -- Mountain Loop Highway"
},{
    "features": [],
    "id": "101.27",
    "link": "http://www.wta.org/go-hiking/hikes/boulder-pass",
    "name": "Boulder Pass",
    "rating": "4.25",
    "region": "Central Cascades"
},{
    "features": [],
    "id": "101.28",
    "link": "http://www.wta.org/go-hiking/hikes/boundary-trail",
    "name": "Boundary Trail - Rainier",
    "rating": "3.00",
    "region": "Mount Rainier Area -- NW - Carbon River/Mowich"
},{
    "features": [],
    "id": "101.29",
    "link": "http://www.wta.org/go-hiking/hikes/cabinet-creek",
    "name": "Cabinet Creek",
    "rating": "2.75",
    "region": "North Cascades"
}
,{
    "features": [],
    "id": "102.0",
    "link": "http://www.wta.org/go-hiking/hikes/brush-creek",
    "name": "Brush Creek",
    "rating": "2.00",
    "region": "North Cascades"
},{
    "features": [],
    "id": "102.1",
    "link": "http://www.wta.org/go-hiking/hikes/breezy-point",
    "name": "Breezy Point",
    "rating": "3.75",
    "region": "South Cascades"
},{
    "distance": "2.5",
    "features": [
        "Dogs allowed on leash",
        "Good for kids",
        "Coast"
    ],
    "gain": "200",
    "high_point": "200.0",
    "id": "102.2",
    "link": "http://www.wta.org/go-hiking/hikes/camano-island-state-park",
    "name": "Camano Island State Park",
    "rating": "2.62",
    "region": "Puget Sound and Islands -- Bellingham Area",
    "type": "Roundtrip"
},{
    "distance": "8.5",
    "features": [
        "Mountain views",
        "Wildlife",
        "Summits"
    ],
    "gain": "2500",
    "high_point": "6100.0",
    "id": "102.3",
    "link": "http://www.wta.org/go-hiking/hikes/buck-mountain-snowshoe",
    "name": "Buck Mountain Snowshoe",
    "rating": "4.50",
    "region": "North Cascades -- Methow/Sawtooth",
    "type": "Roundtrip"
},{
    "features": [],
    "id": "102.4",
    "link": "http://www.wta.org/go-hiking/hikes/cabin-trail",
    "name": "Cabin Trail",
    "rating": "4.25",
    "region": "Eastern Washington"
},{
    "features": [
        "Mountain views"
    ],
    "id": "102.5",
    "link": "http://www.wta.org/go-hiking/hikes/boston-basin",
    "name": "Boston Basin",
    "rating": "4.00",
    "region": "North Cascades -- North Cascades Highway - Hwy 20"
},{
    "features": [],
    "id": "102.6",
    "link": "http://www.wta.org/go-hiking/hikes/cady-pass",
    "name": "Cady Pass",
    "rating": "3.00",
    "region": "Central Cascades"
},{
    "distance": "4.5",
    "features": [
        "Mountain views"
    ],
    "gain": "1500",
    "high_point": "5800.0",
    "id": "102.7",
    "link": "http://www.wta.org/go-hiking/hikes/bullion-basin-snowshoe",
    "name": "Bullion Basin Snowshoe",
    "rating": "4.50",
    "region": "Mount Rainier Area -- Chinook Pass - Hwy 410",
    "type": "Roundtrip"
},{
    "features": [],
    "id": "102.8",
    "link": "http://www.wta.org/go-hiking/hikes/bonaparte",
    "name": "Bonaparte",
    "rating": "2.50",
    "region": "Eastern Washington"
},{
    "distance": "5.2",
    "features": [
        "Mountain views",
        "Dogs allowed on leash",
        "Good for kids",
        "Ridges/passes"
    ],
    "gain": "1300",
    "high_point": "4300.0",
    "id": "102.9",
    "link": "http://www.wta.org/go-hiking/hikes/cady-creek",
    "name": "Cady Creek",
    "rating": "2.80",
    "region": "Central Cascades",
    "type": "Roundtrip"
},{
    "distance": "2.0",
    "features": [
        "Wildflowers/Meadows",
        "Good for kids",
        "Fall foliage"
    ],
    "gain": "350",
    "high_point": "3200.0",
    "id": "102.10",
    "link": "http://www.wta.org/go-hiking/hikes/camas-meadows",
    "name": "Camas Meadows",
    "rating": "2.00",
    "region": "Central Cascades -- Blewett Pass",
    "type": "Roundtrip"
},{
    "distance": "2.0",
    "features": [
        "Old growth",
        "Wildlife",
        "Rivers"
    ],
    "gain": "400",
    "high_point": "3400.0",
    "id": "102.11",
    "link": "http://www.wta.org/go-hiking/hikes/box-canyon-of-the-cowlitz",
    "name": "Box Canyon and Nickel Creek",
    "rating": "3.20",
    "region": "Mount Rainier Area -- SE - Cayuse Pass/Steven's Canyon",
    "type": "Roundtrip"
},{
    "features": [],
    "id": "102.12",
    "link": "http://www.wta.org/go-hiking/hikes/butte-creek",
    "name": "Butte Creek",
    "rating": "3.00",
    "region": "Central Cascades -- Entiat Mountains/Lake Chelan"
},{
    "distance": "13.0",
    "features": [
        "Wildflowers/Meadows",
        "Old growth",
        "Established campsites"
    ],
    "gain": "1400",
    "high_point": "6100.0",
    "id": "102.13",
    "link": "http://www.wta.org/go-hiking/hikes/burnt-rock",
    "name": "Burnt Rock",
    "rating": "2.80",
    "region": "South Cascades -- Mount Adams Area",
    "type": "Roundtrip"
},{
    "features": [],
    "id": "102.14",
    "link": "http://www.wta.org/go-hiking/hikes/cameron-lost-primitive",
    "name": "Cameron-Lost Primitive",
    "rating": "3.25",
    "region": "Olympic Peninsula -- Hood Canal"
},{
    "features": [],
    "id": "102.15",
    "link": "http://www.wta.org/go-hiking/hikes/bone-lake",
    "name": "Bone Lake",
    "rating": "3.25",
    "region": "South Cascades"
},{
    "features": [],
    "id": "102.16",
    "link": "http://www.wta.org/go-hiking/hikes/bottle-spring",
    "name": "Bottle Spring",
    "rating": "3.75",
    "region": "Eastern Washington"
},{
    "features": [],
    "id": "102.17",
    "link": "http://www.wta.org/go-hiking/hikes/boulder-creek",
    "name": "Boulder Creek",
    "rating": "3.00",
    "region": "Central Cascades -- Leavenworth Area"
},{
    "features": [],
    "id": "102.18",
    "link": "http://www.wta.org/go-hiking/hikes/bryant-peak",
    "name": "Bryant Peak",
    "rating": "2.50",
    "region": "Snoqualmie Region"
},{
    "distance": "8.0",
    "features": [
        "Wildlife",
        "Lakes"
    ],
    "gain": "100",
    "id": "102.19",
    "link": "http://www.wta.org/go-hiking/hikes/breeden-road-wall-lake",
    "name": "Breeden Road - Wall Lake",
    "rating": "4.00",
    "region": "Eastern Washington -- Spokane Area/Coeur d'Alene",
    "type": "Roundtrip"
},{
    "distance": "6.5",
    "features": [],
    "gain": "900",
    "high_point": "3500.0",
    "id": "102.20",
    "link": "http://www.wta.org/go-hiking/hikes/busywild-overlook-snowshoe",
    "name": "Busywild Overlook Snowshoe",
    "rating": "3.00",
    "region": "Mount Rainier Area -- SW - Longmire/Paradise",
    "type": "Roundtrip"
},{
    "features": [],
    "id": "102.21",
    "link": "http://www.wta.org/go-hiking/hikes/cady-point",
    "name": "Cady Point",
    "rating": "4.50",
    "region": "Central Cascades"
},{
    "distance": "4.0",
    "features": [
        "Wildlife",
        "Rivers"
    ],
    "gain": "1550",
    "high_point": "2200.0",
    "id": "102.22",
    "link": "http://www.wta.org/go-hiking/hikes/boyer-park-bluffs",
    "name": "Boyer Park Bluffs",
    "rating": "4.50",
    "region": "Eastern Washington -- Palouse and Blue Mountains",
    "type": "Roundtrip"
},{
    "features": [],
    "id": "102.23",
    "link": "http://www.wta.org/go-hiking/hikes/bryan-butte",
    "name": "Bryan Butte",
    "rating": "2.75",
    "region": "North Cascades"
},{
    "distance": "1.5",
    "features": [
        "Mountain views",
        "Summits",
        "Good for kids"
    ],
    "gain": "400",
    "high_point": "5304.0",
    "id": "102.24",
    "link": "http://www.wta.org/go-hiking/hikes/burley-mountain",
    "name": "Burley Mountain",
    "rating": "3.00",
    "region": "South Cascades -- Dark Divide",
    "type": "Roundtrip"
},{
    "features": [],
    "id": "102.25",
    "link": "http://www.wta.org/go-hiking/hikes/boiling-lake",
    "name": "Boiling Lake",
    "rating": "4.00",
    "region": "North Cascades -- Methow/Sawtooth"
},{
    "features": [],
    "id": "102.26",
    "link": "http://www.wta.org/go-hiking/hikes/calispell-ridge",
    "name": "Calispell Ridge",
    "rating": "2.00",
    "region": "Eastern Washington"
},{
    "features": [],
    "id": "102.27",
    "link": "http://www.wta.org/go-hiking/hikes/brown-creek",
    "name": "Brown Creek",
    "rating": "3.20",
    "region": "Olympic Peninsula -- Hood Canal"
},{
    "features": [],
    "id": "102.28",
    "link": "http://www.wta.org/go-hiking/hikes/cameron-pass",
    "name": "Cameron Pass",
    "rating": "2.50",
    "region": "Olympic Peninsula -- Hood Canal"
},{
    "features": [],
    "id": "102.29",
    "link": "http://www.wta.org/go-hiking/hikes/boulder-butte",
    "name": "Boulder Butte",
    "rating": "2.80",
    "region": "North Cascades"
}
,{
    "distance": "4.0",
    "features": [
        "Mountain views",
        "Wildlife",
        "Lakes",
        "Ridges/passes"
    ],
    "gain": "1800",
    "high_point": "4390.0",
    "id": "103.0",
    "link": "http://www.wta.org/go-hiking/hikes/boundary",
    "name": "Boundary West",
    "rating": "3.00",
    "region": "South Cascades -- Mount St. Helens",
    "type": "Roundtrip"
},{
    "features": [],
    "id": "103.1",
    "link": "http://www.wta.org/go-hiking/hikes/buffalo-pass",
    "name": "Buffalo Pass",
    "rating": "2.80",
    "region": "North Cascades"
},{
    "features": [],
    "id": "103.2",
    "link": "http://www.wta.org/go-hiking/hikes/boulder-creek-2",
    "name": "Boulder Creek",
    "rating": "2.25",
    "region": "North Cascades"
},{
    "features": [],
    "id": "103.3",
    "link": "http://www.wta.org/go-hiking/hikes/border-trail",
    "name": "Border Trail",
    "rating": "3.40",
    "region": "North Cascades -- Pasayten"
},{
    "distance": "7.0",
    "features": [
        "Wildflowers/Meadows",
        "Mountain views",
        "Dogs allowed on leash"
    ],
    "gain": "1500",
    "high_point": "6300.0",
    "id": "103.4",
    "link": "http://www.wta.org/go-hiking/hikes/bullion-basin",
    "name": "Bullion Basin",
    "rating": "3.40",
    "region": "Mount Rainier Area -- Chinook Pass - Hwy 410",
    "type": "Roundtrip"
},{
    "features": [],
    "id": "103.5",
    "link": "http://www.wta.org/go-hiking/hikes/big-twin",
    "name": "Big Twin",
    "rating": "3.75",
    "region": "South Cascades"
},{
    "features": [],
    "id": "103.6",
    "link": "http://www.wta.org/go-hiking/hikes/blazed-ridge",
    "name": "Blazed Ridge",
    "rating": "3.00",
    "region": "Snoqualmie Region"
},{
    "distance": "13.0",
    "features": [
        "Mountain views",
        "Lakes",
        "Ridges/passes"
    ],
    "gain": "700",
    "high_point": "5200.0",
    "id": "103.7",
    "link": "http://www.wta.org/go-hiking/hikes/blue-lake-2",
    "name": "Blue Lake via Cultus Creek",
    "rating": "2.17",
    "region": "South Cascades -- Mount Adams Area",
    "type": "Roundtrip"
},{
    "features": [],
    "id": "103.8",
    "link": "http://www.wta.org/go-hiking/hikes/boardman-camp",
    "name": "Boardman Camp",
    "rating": "3.25",
    "region": "Central Cascades"
},{
    "distance": "9.0",
    "features": [
        "Wildflowers/Meadows",
        "Wildlife"
    ],
    "gain": "3600",
    "high_point": "5200.0",
    "id": "103.9",
    "link": "http://www.wta.org/go-hiking/hikes/bishop-ridge",
    "name": "Bishop Ridge",
    "rating": "3.00",
    "region": "South Cascades -- Dark Divide",
    "type": "Roundtrip"
},{
    "distance": "14.0",
    "features": [
        "Old growth",
        "Wildlife"
    ],
    "gain": "2500",
    "high_point": "6000.0",
    "id": "103.10",
    "link": "http://www.wta.org/go-hiking/hikes/blue-mountain-deer-park-snowshoe",
    "name": "Blue Mountain - Deer Park Snowshoe",
    "rating": "3.50",
    "region": "Olympic Peninsula",
    "type": "Roundtrip"
},{
    "features": [],
    "id": "103.11",
    "link": "http://www.wta.org/go-hiking/hikes/blue-hole",
    "name": "Blue Hole",
    "rating": "3.83",
    "region": "South Cascades"
},{
    "distance": "11.9",
    "features": [
        "Mountain views",
        "Good for kids",
        "Lakes"
    ],
    "gain": "1800",
    "high_point": "3000.0",
    "id": "103.12",
    "link": "http://www.wta.org/go-hiking/hikes/boardman-lake-snowshoe",
    "name": "Boardman Lake Snowshoe",
    "rating": "1.50",
    "region": "North Cascades -- Mountain Loop Highway",
    "type": "Roundtrip"
},{
    "features": [],
    "id": "103.13",
    "link": "http://www.wta.org/go-hiking/hikes/big-creek-2",
    "name": "Big Creek",
    "rating": "3.75",
    "region": "South Cascades"
},{
    "distance": "16.0",
    "features": [
        "Wildlife"
    ],
    "gain": "2850",
    "high_point": "4850.0",
    "id": "103.14",
    "link": "http://www.wta.org/go-hiking/hikes/big-burn-canyon",
    "name": "Big Burn Canyon",
    "rating": "3.50",
    "region": "Central Washington -- Yakima",
    "type": "Roundtrip"
},{
    "features": [],
    "id": "103.15",
    "link": "http://www.wta.org/go-hiking/hikes/beverly-turnpike",
    "name": "Beverly Turnpike",
    "rating": "2.33",
    "region": "Snoqualmie Region -- Salmon La Sac/Teanaway"
},{
    "distance": "7.0",
    "features": [
        "Mountain views",
        "Old growth",
        "Good for kids",
        "Rivers"
    ],
    "gain": "250",
    "high_point": "1800.0",
    "id": "103.16",
    "link": "http://www.wta.org/go-hiking/hikes/big-four-ice-caves-snowshoe",
    "name": "Big Four Ice Caves Snowshoe",
    "rating": "3.80",
    "region": "North Cascades -- Mountain Loop Highway",
    "type": "Roundtrip"
},{
    "features": [],
    "id": "103.17",
    "link": "http://www.wta.org/go-hiking/hikes/big-hollow",
    "name": "Big Hollow",
    "rating": "2.75",
    "region": "South Cascades"
},{
    "features": [],
    "id": "103.18",
    "link": "http://www.wta.org/go-hiking/hikes/blue-jay-way",
    "name": "Blue Jay Way",
    "rating": "2.75",
    "region": "Central Cascades"
},{
    "features": [
        "Wildflowers/Meadows",
        "Mountain views",
        "Old growth",
        "Rivers"
    ],
    "id": "103.19",
    "link": "http://www.wta.org/go-hiking/hikes/blue-creek-1",
    "name": "Blue Creek",
    "rating": "2.33",
    "region": "Central Cascades -- Blewett Pass"
},{
    "features": [],
    "id": "103.20",
    "link": "http://www.wta.org/go-hiking/hikes/big-meadow-lake",
    "name": "Big Meadow Lake",
    "rating": "3.25",
    "region": "Eastern Washington"
},{
    "features": [],
    "id": "103.21",
    "link": "http://www.wta.org/go-hiking/hikes/big-slide",
    "name": "Big Slide",
    "rating": "4.00",
    "region": "South Cascades"
},{
    "features": [],
    "id": "103.22",
    "link": "http://www.wta.org/go-hiking/hikes/blankenship-lakes",
    "name": "Blankenship Lakes",
    "rating": "3.40",
    "region": "South Cascades"
},{
    "features": [],
    "id": "103.23",
    "link": "http://www.wta.org/go-hiking/hikes/blackjack-ridge",
    "name": "Blackjack Ridge",
    "rating": "3.60",
    "region": "Central Cascades -- Leavenworth Area"
},{
    "features": [],
    "id": "103.24",
    "link": "http://www.wta.org/go-hiking/hikes/blue-creek",
    "name": "Blue Creek",
    "rating": "3.60",
    "region": "Central Cascades"
},{
    "distance": "5.0",
    "features": [
        "Wildflowers/Meadows",
        "Wildlife",
        "Lakes",
        "Waterfalls"
    ],
    "gain": "300",
    "high_point": "1500.0",
    "id": "103.25",
    "link": "http://www.wta.org/go-hiking/hikes/billy-clapp-lake",
    "name": "Billy Clapp Lake",
    "rating": "2.25",
    "region": "Central Washington -- Wenatchee",
    "type": "Roundtrip"
},{
    "distance": "6.0",
    "features": [
        "Wildflowers/Meadows",
        "Wildlife",
        "Rivers"
    ],
    "id": "103.26",
    "link": "http://www.wta.org/go-hiking/hikes/big-flat-habitat-management-unit",
    "name": "Big Flat Habitat Management Unit",
    "rating": "3.50",
    "region": "Central Washington -- Tri-Cities",
    "type": "Roundtrip"
},{
    "features": [],
    "id": "103.27",
    "link": "http://www.wta.org/go-hiking/hikes/bismark-peak",
    "name": "Bismark Peak",
    "rating": "3.20",
    "region": "South Cascades"
},{
    "distance": "3.0",
    "features": [
        "Wildlife",
        "Lakes"
    ],
    "gain": "390",
    "id": "103.28",
    "link": "http://www.wta.org/go-hiking/hikes/bobs-lakes",
    "name": "Bobs Lakes",
    "rating": "3.50",
    "region": "Central Washington -- Potholes Region",
    "type": "Roundtrip"
},{
    "distance": "4.0",
    "features": [
        "Wildflowers/Meadows",
        "Wildlife",
        "Lakes"
    ],
    "gain": "100",
    "high_point": "1000.0",
    "id": "103.29",
    "link": "http://www.wta.org/go-hiking/hikes/blythe-lake",
    "name": "Chukar Lake - Blythe Lake",
    "rating": "2.60",
    "region": "Central Washington -- Potholes Region",
    "type": "Roundtrip"
}
,{
    "distance": "5.0",
    "features": [
        "Lakes"
    ],
    "high_point": "4200.0",
    "id": "104.0",
    "link": "http://www.wta.org/go-hiking/hikes/black-white-lakes",
    "name": "Black & White Lakes",
    "rating": "3.75",
    "region": "Olympic Peninsula -- Hood Canal",
    "type": "Roundtrip"
},{
    "features": [],
    "id": "104.1",
    "link": "http://www.wta.org/go-hiking/hikes/blue-buck",
    "name": "Blue Buck",
    "rating": "3.25",
    "region": "Central Cascades"
},{
    "features": [],
    "id": "104.2",
    "link": "http://www.wta.org/go-hiking/hikes/big-crow-basin",
    "name": "Big Crow Basin",
    "rating": "3.00",
    "region": "South Cascades"
},{
    "features": [
        "Wildflowers/Meadows",
        "Rivers"
    ],
    "id": "104.3",
    "link": "http://www.wta.org/go-hiking/hikes/bob-hierman-preserve",
    "name": "Bob Heirman Wildlife Preserve",
    "rating": "2.00",
    "region": "Puget Sound and Islands -- Bellingham Area"
},{
    "features": [],
    "id": "104.4",
    "link": "http://www.wta.org/go-hiking/hikes/big-meadow-creek",
    "name": "Big Meadow Creek",
    "rating": "4.00",
    "region": "Central Cascades"
},{
    "features": [],
    "id": "104.5",
    "link": "http://www.wta.org/go-hiking/hikes/billy-creek",
    "name": "Billy Creek",
    "rating": "4.00",
    "region": "Central Cascades"
},{
    "features": [],
    "id": "104.6",
    "link": "http://www.wta.org/go-hiking/hikes/bluff-trail",
    "name": "Bluff Trail",
    "rating": "2.00",
    "region": "South Cascades"
},{
    "features": [],
    "id": "104.7",
    "link": "http://www.wta.org/go-hiking/hikes/beth-lake",
    "name": "Beth Lake",
    "rating": "3.00",
    "region": "Eastern Washington"
},{
    "features": [],
    "id": "104.8",
    "link": "http://www.wta.org/go-hiking/hikes/blackhorse-lake-boardwalk",
    "name": "Blackhorse Lake Boardwalk",
    "rating": "3.00",
    "region": "Eastern Washington"
},{
    "features": [],
    "id": "104.9",
    "link": "http://www.wta.org/go-hiking/hikes/billy-ridge",
    "name": "Billy Ridge",
    "rating": "4.00",
    "region": "Central Cascades"
},{
    "features": [],
    "id": "104.10",
    "link": "http://www.wta.org/go-hiking/hikes/blizzard-peak",
    "name": "Blizzard Peak",
    "rating": "2.50",
    "region": "North Cascades"
},{
    "distance": "7.0",
    "features": [
        "Wildflowers/Meadows",
        "Wildlife",
        "Fall foliage"
    ],
    "gain": "1250",
    "id": "104.11",
    "link": "http://www.wta.org/go-hiking/hikes/black-canyon",
    "name": "Black Canyon",
    "rating": "4.40",
    "region": "Central Washington -- Yakima",
    "type": "Roundtrip"
},{
    "features": [],
    "id": "104.12",
    "link": "http://www.wta.org/go-hiking/hikes/big-tree",
    "name": "Big Tree",
    "rating": "1.75",
    "region": "Eastern Washington"
},{
    "features": [],
    "id": "104.13",
    "link": "http://www.wta.org/go-hiking/hikes/black-pine-lake",
    "name": "Black Pine Lake",
    "rating": "3.50",
    "region": "North Cascades -- Methow/Sawtooth"
},{
    "features": [],
    "id": "104.14",
    "link": "http://www.wta.org/go-hiking/hikes/blankenship-meadows",
    "name": "Blankenship Meadows",
    "rating": "3.00",
    "region": "South Cascades"
},{
    "distance": "1.0",
    "features": [],
    "high_point": "2000.0",
    "id": "104.15",
    "link": "http://www.wta.org/go-hiking/hikes/big-tree-loop",
    "name": "Big Tree Loop",
    "rating": "3.25",
    "region": "Central Cascades -- Stevens Pass - West",
    "type": "Roundtrip"
},{
    "distance": "13.0",
    "features": [],
    "gain": "600",
    "high_point": "4000.0",
    "id": "104.16",
    "link": "http://www.wta.org/go-hiking/hikes/big-lava-bed",
    "name": "Big Lava Bed",
    "rating": "3.50",
    "region": "South Cascades -- Mount Adams Area",
    "type": "Roundtrip"
},{
    "features": [],
    "id": "104.17",
    "link": "http://www.wta.org/go-hiking/hikes/backpacker-camp",
    "name": "Backpacker Camp",
    "rating": "3.25",
    "region": "Central Cascades -- Entiat Mountains/Lake Chelan"
},{
    "features": [],
    "id": "104.18",
    "link": "http://www.wta.org/go-hiking/hikes/beaver-creek",
    "name": "Beaver Creek",
    "rating": "3.75",
    "region": "North Cascades"
},{
    "features": [],
    "id": "104.19",
    "link": "http://www.wta.org/go-hiking/hikes/bat-caves",
    "name": "Bat Caves",
    "rating": "1.40",
    "region": "Puget Sound and Islands -- Bellingham Area"
},{
    "features": [],
    "id": "104.20",
    "link": "http://www.wta.org/go-hiking/hikes/bald-mountain",
    "name": "Bald Mountain via Ashland Lakes",
    "rating": "2.00",
    "region": "North Cascades -- Mountain Loop Highway"
},{
    "features": [],
    "id": "104.21",
    "link": "http://www.wta.org/go-hiking/hikes/bernice-lake",
    "name": "Bernice Lake",
    "rating": "4.50",
    "region": "Central Cascades"
},{
    "features": [],
    "id": "104.22",
    "link": "http://www.wta.org/go-hiking/hikes/barnaby-buttes",
    "name": "Barnaby Buttes",
    "rating": "3.50",
    "region": "Eastern Washington"
},{
    "features": [],
    "id": "104.23",
    "link": "http://www.wta.org/go-hiking/hikes/aurora-ridge",
    "name": "Aurora Ridge",
    "rating": "2.80",
    "region": "Olympic Peninsula -- Northern Coast"
},{
    "features": [],
    "id": "104.24",
    "link": "http://www.wta.org/go-hiking/hikes/aurora-divide",
    "name": "Aurora Divide",
    "rating": "3.20",
    "region": "Olympic Peninsula -- Northern Coast"
},{
    "features": [],
    "id": "104.25",
    "link": "http://www.wta.org/go-hiking/hikes/basin-lake",
    "name": "Basin Lake",
    "rating": "2.20",
    "region": "South Cascades"
},{
    "distance": "8.9",
    "features": [
        "Wildflowers/Meadows",
        "Mountain views",
        "Wildlife"
    ],
    "gain": "2775",
    "id": "104.26",
    "link": "http://www.wta.org/go-hiking/hikes/badger-vallley",
    "name": "Badger Valley",
    "rating": "2.40",
    "region": "Olympic Peninsula -- Northern Coast",
    "type": "Roundtrip"
},{
    "features": [],
    "id": "104.27",
    "link": "http://www.wta.org/go-hiking/hikes/bear-mountain",
    "name": "Bear Mountain",
    "rating": "2.25",
    "region": "Olympic Peninsula -- Northern Coast"
},{
    "distance": "4.0",
    "features": [
        "Old growth",
        "Good for kids",
        "Lakes",
        "Rivers"
    ],
    "gain": "100",
    "high_point": "1000.0",
    "id": "104.28",
    "link": "http://www.wta.org/go-hiking/hikes/beaver-lake-1",
    "name": "Beaver Lake - Mtn Loop",
    "rating": "3.00",
    "region": "North Cascades -- Mountain Loop Highway",
    "type": "Roundtrip"
},{
    "features": [],
    "id": "104.29",
    "link": "http://www.wta.org/go-hiking/hikes/bear-creek",
    "name": "Bear Creek",
    "rating": "2.50",
    "region": "South Cascades"
}
,{
    "features": [],
    "id": "105.0",
    "link": "http://www.wta.org/go-hiking/hikes/basin-creek",
    "name": "Basin Creek",
    "rating": "4.50",
    "region": "Eastern Washington"
},{
    "features": [],
    "id": "105.1",
    "link": "http://www.wta.org/go-hiking/hikes/bachelor-meadows",
    "name": "Bachelor Meadows",
    "rating": "2.60",
    "region": "Central Cascades"
},{
    "distance": "10.0",
    "features": [
        "Mountain views",
        "Lakes"
    ],
    "gain": "1400",
    "high_point": "2775.0",
    "id": "105.2",
    "link": "http://www.wta.org/go-hiking/hikes/bear-lake-snowshoe",
    "name": "Bear Lake Snowshoe",
    "rating": "2.50",
    "region": "North Cascades -- Mountain Loop Highway",
    "type": "Roundtrip"
},{
    "features": [],
    "id": "105.3",
    "link": "http://www.wta.org/go-hiking/hikes/beaver-valley",
    "name": "Beaver Valley",
    "rating": "2.80",
    "region": "Issaquah Alps -- Tiger Mountain"
},{
    "distance": "3.0",
    "features": [
        "Wildflowers/Meadows",
        "Mountain views",
        "Wildlife"
    ],
    "gain": "400",
    "high_point": "1750.0",
    "id": "105.4",
    "link": "http://www.wta.org/go-hiking/hikes/beezley-hills-preserve",
    "name": "Beezley Hills Preserve",
    "rating": "2.11",
    "region": "Central Washington -- Grand Coulee",
    "type": "Roundtrip"
},{
    "distance": "13.0",
    "features": [],
    "gain": "4100",
    "high_point": "5028.0",
    "id": "105.5",
    "link": "http://www.wta.org/go-hiking/hikes/bessemer-mountain",
    "name": "Bessemer Mountain",
    "rating": "3.00",
    "region": "Snoqualmie Region -- North Bend Area",
    "type": "Roundtrip"
},{
    "features": [],
    "id": "105.6",
    "link": "http://www.wta.org/go-hiking/hikes/beauty-creek",
    "name": "Beauty Creek",
    "rating": "4.75",
    "region": "North Cascades"
},{
    "features": [],
    "id": "105.7",
    "link": "http://www.wta.org/go-hiking/hikes/batey-bould",
    "name": "Batey Bould",
    "rating": "2.75",
    "region": "Eastern Washington"
},{
    "features": [],
    "id": "105.8",
    "link": "http://www.wta.org/go-hiking/hikes/baker-pass",
    "name": "Baker Pass",
    "rating": "3.00",
    "region": "North Cascades -- Mount Baker Area"
},{
    "features": [],
    "id": "105.9",
    "link": "http://www.wta.org/go-hiking/hikes/basalt-pass",
    "name": "Basalt Pass",
    "rating": "3.00",
    "region": "Central Cascades -- Stevens Pass - East"
},{
    "features": [],
    "id": "105.10",
    "link": "http://www.wta.org/go-hiking/hikes/badlands",
    "name": "Badlands Trail",
    "rating": "3.50",
    "region": "Central Cascades -- Stevens Pass - East"
},{
    "features": [],
    "id": "105.11",
    "link": "http://www.wta.org/go-hiking/hikes/baker-hot-springs",
    "name": "Baker Hot Springs",
    "rating": "4.17",
    "region": "North Cascades -- Mount Baker Area"
},{
    "features": [],
    "id": "105.12",
    "link": "http://www.wta.org/go-hiking/hikes/bear-gap",
    "name": "Bear Gap",
    "rating": "2.25",
    "region": "South Cascades"
},{
    "features": [],
    "id": "105.13",
    "link": "http://www.wta.org/go-hiking/hikes/bald-eagle-mountain",
    "name": "Bald Eagle Mountain",
    "rating": "1.50",
    "region": "Central Cascades"
}
]
